{
	"info": {
		"_postman_id": "6e08b14e-142d-4641-bafc-a47cfb360ecf",
		"name": "MPDC",
		"schema": "https://schema.getpostman.com/json/collection/v2.1.0/collection.json"
	},
	"item": [
		{
			"name": "API Call",
			"event": [
				{
					"listen": "test",
					"script": {
						"id": "3d40cfee-dc3c-4086-a546-164d392e9c8c",
						"exec": [
							"pm.test(\"Status code is 200\", function () {",
							"    pm.response.to.have.status(200);",
							"});",
							"",
							"var jsonObject = xml2Json(responseBody);",
							"var parseResponse = jsonObject['SOAP-ENV:Envelope']['SOAP-ENV:Body']['mp:UsersReportResponse']['mp:Base64Content'];",
							"",
							"pm.globals.set(\"parseResponse_Key\",parseResponse);",
							"console.log(pm.globals.get(\"parseResponse_Key\"));"
						],
						"type": "text/javascript"
					}
				}
			],
			"request": {
				"auth": {
					"type": "basic",
					"basic": [
						{
							"key": "password",
							"value": "Bhavsar123#",
							"type": "string"
						},
						{
							"key": "username",
							"value": "VismayLocal#manulife-corp",
							"type": "string"
						}
					]
				},
				"method": "POST",
				"header": [
					{
						"key": "Content-Type",
						"name": "Content-Type",
						"value": "text/xml",
						"type": "text"
					}
				],
				"body": {
					"mode": "raw",
					"raw": "<soapenv:Envelope xmlns:soapenv=\"http://schemas.xmlsoap.org/soap/envelope/\" xmlns:sch=\"http://messagepoint.com/api/schemas\">\r\n\r\n<soapenv:Header>\r\n\r\n    <wsse:Security soapenv:mustUnderstand=\"1\" xmlns:wsse=\"http://docs.oasis-open.org/wss/2004/01/oasis-200401-wss-wssecurity-secext-1.0.xsd\">\r\n\r\n        <wsse:UsernameToken>\r\n\r\n            <wsse:Username>VismayLocal#manulife-corp</wsse:Username>\r\n\r\n            <wsse:Password Type=\"http://docs.oasis-open.org/wss/2004/01/oasis-200401-wss-username-token-profile-1.0#PasswordText\">Bhavsar123#</wsse:Password>\r\n\r\n        </wsse:UsernameToken>\r\n\r\n    </wsse:Security>\r\n\r\n</soapenv:Header>\r\n\r\n   <soapenv:Body>\r\n\r\n      <sch:UsersReportRequest>\r\n\r\n         <sch:BranchId>manulife-2</sch:BranchId>\r\n\r\n         <!--Optional:-->\r\n\r\n         <sch:NodeId>production</sch:NodeId>\r\n\r\n         <!--Optional:-->\r\n\r\n         <sch:Prerelease>false</sch:Prerelease>\r\n\r\n         <sch:outputType>2</sch:outputType>\r\n\r\n      </sch:UsersReportRequest>\r\n\r\n   </soapenv:Body>\r\n\r\n</soapenv:Envelope>",
					"options": {
						"raw": {
							"language": "xml"
						}
					}
				},
				"url": {
					"raw": "https://ws.messagepoint.com/mp/api/api.wsdl",
					"protocol": "https",
					"host": [
						"ws",
						"messagepoint",
						"com"
					],
					"path": [
						"mp",
						"api",
						"api.wsdl"
					]
				}
			},
			"response": []
		}
	],
	"protocolProfileBehavior": {}
}